{
	"stream1": {
    	"taps": [0, 1, 2, 3, 4, 5, 6, 7, -10, 43, -342324,
				 0, -0, 34, 323, 432432, 423423, 4324, 654654],
    	"period": 100
    	"shift": 1
    },
    "stream2": {
    	"period": 1
    	"taps": [0, 0, 1, 2, 3, 3, 6, 13, 6, 3, 3, 2, 1, 0, 0],
    	"shift": 3
    },
    "raw": "on"
}
